%YAML 1.1
%TAG !u! tag:unity3d.com,2011:
--- !u!114 &11400000
MonoBehaviour:
  m_ObjectHideFlags: 0
  m_CorrespondingSourceObject: {fileID: 0}
  m_PrefabInstance: {fileID: 0}
  m_PrefabAsset: {fileID: 0}
  m_GameObject: {fileID: 0}
  m_Enabled: 1
  m_EditorHideFlags: 0
  m_Script: {fileID: 11500000, guid: 947bc490c7d94644ab52d6f2ff627e99, type: 3}
  m_Name: SpaceShips
  m_EditorClassIdentifier: 
  spaceships:
  - spaceship: {fileID: 5856183390689418918, guid: acfb5d38398ae444988db88300d81579,
      type: 3}
    name: Malta
    isPlayable: 1
    price: 0
    activeMaterialIndex: 1
  - spaceship: {fileID: 1105741334745168, guid: 5d8d81b0fe9adcc458dc3b78f582670c,
      type: 3}
    name: Mercenary
    isPlayable: 0
    price: 100
    activeMaterialIndex: 0
  - spaceship: {fileID: 1093813972544782, guid: b98fd2c0966950249923b02c6caa82bc,
      type: 3}
    name: Exarch
    isPlayable: 0
    price: 75
    activeMaterialIndex: 0
  - spaceship: {fileID: 3592690165032589382, guid: 39e71304fe9df9a45abb2cb563ffe315,
      type: 3}
    name: MaltaV2
    isPlayable: 0
    price: 50
    activeMaterialIndex: 0
  - spaceship: {fileID: 1646988040113528, guid: 05b22364d3b946246ab607846cddceec,
      type: 3}
    name: Hunter
    isPlayable: 0
    price: 100
    activeMaterialIndex: 0
  - spaceship: {fileID: 1771554801005252, guid: f2321d954929936468941e019f6d7ff7,
      type: 3}
    name: Wisdom
    isPlayable: 0
    price: 75
    activeMaterialIndex: 0
  materials:
  - material: {fileID: 2100000, guid: fafcc367ac5b7684dae05621ad300e50, type: 2}
    nameMaterial: Inactive
    isWearble: 1
    price: 0
  - material: {fileID: 2100000, guid: 020568ce6bb9b3245a24630d5282ca24, type: 2}
    nameMaterial: Black
    isWearble: 1
    price: 0
  - material: {fileID: 2100000, guid: 69d393aa2d52fd34f80a48e88145a81c, type: 2}
    nameMaterial: Blue
    isWearble: 0
    price: 30
  - material: {fileID: 2100000, guid: d58bf68b17f9a4240aaeb5c200c9a12c, type: 2}
    nameMaterial: Cyan
    isWearble: 0
    price: 40
  - material: {fileID: 2100000, guid: ec39a84ad2f7de748af283edd7ffa3c1, type: 2}
    nameMaterial: Green
    isWearble: 0
    price: 25
  - material: {fileID: 2100000, guid: 12dffc4c817ab7e4294a82570ef30b58, type: 2}
    nameMaterial: Grey
    isWearble: 0
    price: 25
  index: 0
  levels:
  - levelIndex: 1
    pass: 1
  - levelIndex: 2
    pass: 0
  - levelIndex: 3
    pass: 0
  - levelIndex: 4
    pass: 0
  - levelIndex: 5
    pass: 0
  currentLevel: -1
  sensibility: 1.5
  money: 0
