%YAML 1.1
%TAG !u! tag:unity3d.com,2011:
--- !u!65 &630260389
BoxCollider:
  m_ObjectHideFlags: 0
  m_CorrespondingSourceObject: {fileID: 0}
  m_PrefabInstance: {fileID: 0}
  m_PrefabAsset: {fileID: 0}
  m_GameObject: {fileID: 6745604767283078276}
  m_Material: {fileID: 0}
  m_IsTrigger: 1
  m_Enabled: 1
  serializedVersion: 2
  m_Size: {x: 5.33, y: 4.97, z: 5.62}
  m_Center: {x: 0.01, y: -0.03, z: 0}
--- !u!114 &6562910019860053153
MonoBehaviour:
  m_ObjectHideFlags: 0
  m_CorrespondingSourceObject: {fileID: 0}
  m_PrefabInstance: {fileID: 0}
  m_PrefabAsset: {fileID: 0}
  m_GameObject: {fileID: 6745604767283078276}
  m_Enabled: 1
  m_EditorHideFlags: 0
  m_Script: {fileID: 11500000, guid: ab28bc6411d455e40a7f1a56e6e43007, type: 3}
  m_Name: 
  m_EditorClassIdentifier: 
  player: {fileID: 5939857027404245926, guid: 215845432594bc04b854f0fb0d436e1f, type: 3}
  giveScore: 350
  isEnemy: 0
  explosionSelf: {fileID: 0}
--- !u!1001 &6746096215244904418
PrefabInstance:
  m_ObjectHideFlags: 0
  serializedVersion: 2
  m_Modification:
    m_TransformParent: {fileID: 0}
    m_Modifications:
    - target: {fileID: 1056666096333670, guid: f603e71ddc270d54192200e95673e2a6, type: 3}
      propertyPath: m_Name
      value: DiamontTemp Variant
      objectReference: {fileID: 0}
    - target: {fileID: 1056666096333670, guid: f603e71ddc270d54192200e95673e2a6, type: 3}
      propertyPath: m_TagString
      value: ObjectCollect
      objectReference: {fileID: 0}
    - target: {fileID: 1619919757320400, guid: f603e71ddc270d54192200e95673e2a6, type: 3}
      propertyPath: m_IsActive
      value: 0
      objectReference: {fileID: 0}
    - target: {fileID: 4579553980399578, guid: f603e71ddc270d54192200e95673e2a6, type: 3}
      propertyPath: m_RootOrder
      value: 0
      objectReference: {fileID: 0}
    - target: {fileID: 4579553980399578, guid: f603e71ddc270d54192200e95673e2a6, type: 3}
      propertyPath: m_LocalScale.x
      value: 0.06
      objectReference: {fileID: 0}
    - target: {fileID: 4579553980399578, guid: f603e71ddc270d54192200e95673e2a6, type: 3}
      propertyPath: m_LocalScale.y
      value: 0.09
      objectReference: {fileID: 0}
    - target: {fileID: 4579553980399578, guid: f603e71ddc270d54192200e95673e2a6, type: 3}
      propertyPath: m_LocalScale.z
      value: 0.09
      objectReference: {fileID: 0}
    - target: {fileID: 4579553980399578, guid: f603e71ddc270d54192200e95673e2a6, type: 3}
      propertyPath: m_LocalPosition.x
      value: 0.04
      objectReference: {fileID: 0}
    - target: {fileID: 4579553980399578, guid: f603e71ddc270d54192200e95673e2a6, type: 3}
      propertyPath: m_LocalPosition.y
      value: 0.8
      objectReference: {fileID: 0}
    - target: {fileID: 4579553980399578, guid: f603e71ddc270d54192200e95673e2a6, type: 3}
      propertyPath: m_LocalPosition.z
      value: -56.23423
      objectReference: {fileID: 0}
    - target: {fileID: 4579553980399578, guid: f603e71ddc270d54192200e95673e2a6, type: 3}
      propertyPath: m_LocalRotation.w
      value: 1
      objectReference: {fileID: 0}
    - target: {fileID: 4579553980399578, guid: f603e71ddc270d54192200e95673e2a6, type: 3}
      propertyPath: m_LocalRotation.x
      value: 0.000000021855694
      objectReference: {fileID: 0}
    - target: {fileID: 4579553980399578, guid: f603e71ddc270d54192200e95673e2a6, type: 3}
      propertyPath: m_LocalRotation.y
      value: -0.00000008742278
      objectReference: {fileID: 0}
    - target: {fileID: 4579553980399578, guid: f603e71ddc270d54192200e95673e2a6, type: 3}
      propertyPath: m_LocalRotation.z
      value: 1.9106855e-15
      objectReference: {fileID: 0}
    - target: {fileID: 4579553980399578, guid: f603e71ddc270d54192200e95673e2a6, type: 3}
      propertyPath: m_LocalEulerAnglesHint.x
      value: 0
      objectReference: {fileID: 0}
    - target: {fileID: 4579553980399578, guid: f603e71ddc270d54192200e95673e2a6, type: 3}
      propertyPath: m_LocalEulerAnglesHint.y
      value: 0
      objectReference: {fileID: 0}
    - target: {fileID: 4579553980399578, guid: f603e71ddc270d54192200e95673e2a6, type: 3}
      propertyPath: m_LocalEulerAnglesHint.z
      value: 0
      objectReference: {fileID: 0}
    - target: {fileID: 23523893699283024, guid: f603e71ddc270d54192200e95673e2a6,
        type: 3}
      propertyPath: m_Enabled
      value: 1
      objectReference: {fileID: 0}
    - target: {fileID: 23523893699283024, guid: f603e71ddc270d54192200e95673e2a6,
        type: 3}
      propertyPath: m_Materials.Array.data[0]
      value: 
      objectReference: {fileID: 2100000, guid: 169e11cb4c7aef84ebe402424ca61fca, type: 2}
    m_RemovedComponents: []
  m_SourcePrefab: {fileID: 100100000, guid: f603e71ddc270d54192200e95673e2a6, type: 3}
--- !u!1 &6745604767283078276 stripped
GameObject:
  m_CorrespondingSourceObject: {fileID: 1056666096333670, guid: f603e71ddc270d54192200e95673e2a6,
    type: 3}
  m_PrefabInstance: {fileID: 6746096215244904418}
  m_PrefabAsset: {fileID: 0}
